label;q1;q2;q3;q4;q5;q6;ot;x;y;z;rx;ry;rz;prop;mode
0;12,13;72,81;60,64;-2,24;46,51;13,43;33;;;;;;;;manual_rc
1;12,3;40,63;57,69;-1,64;81,62;12,31;33;;;;;;;;manual_rc
2;48,16;54,31;48,81;2,91;30,26;-0,0;33;;;;;;;;manual_rc
3;37,8;90,0;26,98;-1,66;63,05;38,31;33;;;;;;;;manual_rc
