<?xml version="1.0" encoding="UTF-8" standalone="no"?>
<svg
   xmlns:dc="http://purl.org/dc/elements/1.1/"
   xmlns:cc="http://creativecommons.org/ns#"
   xmlns:rdf="http://www.w3.org/1999/02/22-rdf-syntax-ns#"
   xmlns:svg="http://www.w3.org/2000/svg"
   xmlns="http://www.w3.org/2000/svg"
   xmlns:sodipodi="http://sodipodi.sourceforge.net/DTD/sodipodi-0.dtd"
   xmlns:inkscape="http://www.inkscape.org/namespaces/inkscape"
   version="1.1"
   id="svg12"
   sodipodi:docname="icon_mouse-3.svg"
   inkscape:version="1.0.2 (e86c870879, 2021-01-15)">
  <metadata
     id="metadata16">
    <rdf:RDF>
      <cc:Work
         rdf:about="">
        <dc:format>image/svg+xml</dc:format>
        <dc:type
           rdf:resource="http://purl.org/dc/dcmitype/StillImage" />
        <dc:title></dc:title>
      </cc:Work>
    </rdf:RDF>
  </metadata>
  <sodipodi:namedview
     pagecolor="#ffffff"
     bordercolor="#666666"
     borderopacity="1"
     objecttolerance="10"
     gridtolerance="10"
     guidetolerance="10"
     inkscape:pageopacity="0"
     inkscape:pageshadow="2"
     inkscape:window-width="1920"
     inkscape:window-height="1029"
     id="namedview14"
     showgrid="false"
     inkscape:zoom="1.050379"
     inkscape:cx="-90.02724"
     inkscape:cy="230.87652"
     inkscape:window-x="0"
     inkscape:window-y="0"
     inkscape:window-maximized="1"
     inkscape:current-layer="svg12" />
  <defs
     id="defs2">
    <inkscape:perspective
       sodipodi:type="inkscape:persp3d"
       inkscape:vp_x="0 : 75 : 1"
       inkscape:vp_y="0 : 1000 : 0"
       inkscape:vp_z="300 : 75 : 1"
       inkscape:persp3d-origin="150 : 50 : 1"
       id="perspective18" />
  </defs>
  <g
     id="g10">
    <path
       stroke="none"
       fill="#000000"
       d="m 38.45,9.6 c 0.4,0.4 0.6,0.866667 0.6,1.4 V 29.85 H 39 c 0,3.866667 -1.366667,7.15 -4.1,9.85 -2.7,2.733333 -5.983333,4.1 -9.85,4.1 H 25 c -3.866667,0 -7.166667,-1.366667 -9.9,-4.1 C 12.4,37 11.05,33.716667 11.05,29.85 V 11.05 C 11.05,10.483333 11.233333,10 11.6,9.6 12,9.2 12.483333,9 13.05,9 h 24 c 0.533333,0 1,0.2 1.4,0.6 m -9.15,4.25 c 1.133333,1.2 1.7,2.633333 1.7,4.3 v 3.7 h 5.05 V 12 h -10.8 c 1.633333,0.03333 3.016667,0.7 4.15,2 l -0.1,-0.15 m -6.45,2.05 c -0.366667,0.4 -0.6,0.85 -0.7,1.35 L 22,18.15 v 7.45 c 0,0.9 0.283333,1.666667 0.85,2.3 0.6,0.666667 1.316667,1 2.15,1 0.833333,0 1.533333,-0.333333 2.1,-1 0.6,-0.633333 0.9,-1.4 0.9,-2.3 v -7.45 l -0.1,-0.9 -0.8,-1.35 c -0.566667,-0.633333 -1.266667,-0.95 -2.1,-0.95 -0.833333,0 -1.55,0.316667 -2.15,0.95"
       id="path4"
       sodipodi:nodetypes="cscccssssscssccscccccccccscscscccsc" />
  </g>
</svg>
