<?xml version="1.0" encoding="UTF-8" standalone="no"?>
<svg
   xmlns:dc="http://purl.org/dc/elements/1.1/"
   xmlns:cc="http://creativecommons.org/ns#"
   xmlns:rdf="http://www.w3.org/1999/02/22-rdf-syntax-ns#"
   xmlns:svg="http://www.w3.org/2000/svg"
   xmlns="http://www.w3.org/2000/svg"
   xmlns:sodipodi="http://sodipodi.sourceforge.net/DTD/sodipodi-0.dtd"
   xmlns:inkscape="http://www.inkscape.org/namespaces/inkscape"
   version="1.1"
   id="svg8"
   sodipodi:docname="icon_twins.svg"
   inkscape:version="1.0.2 (e86c870879, 2021-01-15)">
  <metadata
     id="metadata12">
    <rdf:RDF>
      <cc:Work
         rdf:about="">
        <dc:format>image/svg+xml</dc:format>
        <dc:type
           rdf:resource="http://purl.org/dc/dcmitype/StillImage" />
        <dc:title></dc:title>
      </cc:Work>
    </rdf:RDF>
  </metadata>
  <sodipodi:namedview
     pagecolor="#ffffff"
     bordercolor="#666666"
     borderopacity="1"
     objecttolerance="10"
     gridtolerance="10"
     guidetolerance="10"
     inkscape:pageopacity="0"
     inkscape:pageshadow="2"
     inkscape:window-width="1646"
     inkscape:window-height="1015"
     id="namedview10"
     showgrid="false"
     inkscape:zoom="0.68069092"
     inkscape:cx="520.62575"
     inkscape:cy="320.32841"
     inkscape:window-x="0"
     inkscape:window-y="0"
     inkscape:window-maximized="0"
     inkscape:current-layer="svg8" />
  <defs
     id="defs2" />
  <g
     id="g6">
    <path
       stroke="none"
       fill="#000000"
       d="m 40.527894,27.248742 c 0,-1.533333 0.53333,-2.816667 1.6,-3.85 1.06667,-1.066667 2.33333,-1.6 3.8,-1.6 1.5,0 2.78333,0.533333 3.85,1.6 1.03333,1.033333 1.55,2.316667 1.55,3.85 0,1.466667 -0.51667,2.716667 -1.55,3.75 1.2,0.5 2.3,1.25 3.3,2.25 1.96667,1.966667 2.95,4.366667 2.95,7.2 0,1.5 -0.98333,2.766667 -2.95,3.8 -1.96667,1.033333 -4.35,1.55 -7.15,1.55 l -5.15,-0.7 c 1.76667,-1.3 2.58333,-2.85 2.45,-4.65 0,-3.2 -1.06667,-5.966667 -3.2,-8.3 0.63333,-0.466667 1.31667,-0.85 2.05,-1.15 -1.03333,-1.033333 -1.55,-2.283333 -1.55,-3.75 m -5.55,3.75 c 1.2,0.5 2.3,1.25 3.3,2.25 l 0.25,0.25 c 1.8,1.933333 2.7,4.25 2.7,6.95 0,1.433333 -0.9,2.65 -2.7,3.65 l -0.25,0.15 c -1.96667,1.033333 -4.35,1.55 -7.15,1.55 -2.8,0 -5.18333,-0.516667 -7.15,-1.55 -1.93333,-1.033333 -2.91667,-2.3 -2.95,-3.8 0,-2.833333 0.98333,-5.233333 2.95,-7.2 1,-1 2.08333,-1.75 3.25,-2.25 -1,-1.033333 -1.5,-2.283333 -1.5,-3.75 0,-1.533333 0.53333,-2.816667 1.6,-3.85 1.03333,-1.066667 2.3,-1.6 3.8,-1.6 1.5,0 2.78333,0.533333 3.85,1.6 1.03333,1.033333 1.55,2.316667 1.55,3.85 0,1.466667 -0.51667,2.716667 -1.55,3.75"
       id="path4"
       sodipodi:nodetypes="ccssscssscccccccscsccsccscscsssc" />
  </g>
</svg>
