<?xml version="1.0" encoding="UTF-8" standalone="no"?>
<svg
   xmlns:dc="http://purl.org/dc/elements/1.1/"
   xmlns:cc="http://creativecommons.org/ns#"
   xmlns:rdf="http://www.w3.org/1999/02/22-rdf-syntax-ns#"
   xmlns:svg="http://www.w3.org/2000/svg"
   xmlns="http://www.w3.org/2000/svg"
   id="svg8"
   version="1.1">
  <metadata
     id="metadata12">
    <rdf:RDF>
      <cc:Work
         rdf:about="">
        <dc:format>image/svg+xml</dc:format>
        <dc:type
           rdf:resource="http://purl.org/dc/dcmitype/StillImage" />
        <dc:title></dc:title>
      </cc:Work>
    </rdf:RDF>
  </metadata>
  <defs
     id="defs2" />
  <g
     style="fill:#000000"
     id="g6">
    <path
       style="fill:#000000;stroke:none"
       id="path4"
       d="m 56.608199,50.088799 -5.55,-9.6 0.05,-0.05 c 4.26667,-2.66667 8.51667,-2.68333 12.75,-0.05 l 15.5,9.75 c 2.8,1.73333 4.06667,3.58333 3.8,5.55 0.26667,1.9 -1,3.73333 -3.8,5.5 l -25.05,15.7 c -4.23333,2.63333 -8.46667,2.63333 -12.7,0 h -0.05 l -15.45,-9.75 h 0.05 c -2.83333,-1.73333 -4.11667,-3.56667 -3.85,-5.5 -0.26667,-1.93333 1.01667,-3.76667 3.85,-5.5 h -0.05 l 11.4,-7.15 5.35,9.25 0.1,0.2 c 0.43333,0.7 1.11667,1.21667 2.05,1.55 l 0.3,0.1 5.45,1.45 h 0.05 c 1.03333,0.26667 2.01667,0.13333 2.95,-0.4 0.96667,-0.53333 1.58333,-1.35 1.85,-2.45 v 0.05 l 1.5,-5.45 0.05,-0.15 c 0.26667,-1.23333 0.0833,-2.25 -0.55,-3.05 m -15.85,-18.8 -6.95,4 -0.75,0.1 -0.6,-0.45 -4,-6.95 c -0.13333,-0.23333 -0.16667,-0.48333 -0.1,-0.75 0.0667,-0.26667 0.21667,-0.46667 0.45,-0.6 l 6.95,-4 0.75,-0.1 0.6,0.45 4,6.95 0.1,0.75 -0.45,0.6 m -4.95,6.75 6.95,-4 0.75,-0.1 0.6,0.45 10,17.35 0.1,0.75 -1.5,5.45 -0.45,0.6 -0.75,0.1 -5.45,-1.45 -0.6,-0.45 -10,-17.35 c -0.13333,-0.23333 -0.16667,-0.48333 -0.1,-0.75 l 0.45,-0.6" />
  </g>
</svg>
