<?xml version="1.0" encoding="UTF-8" standalone="no"?>
<svg
   xmlns:dc="http://purl.org/dc/elements/1.1/"
   xmlns:cc="http://creativecommons.org/ns#"
   xmlns:rdf="http://www.w3.org/1999/02/22-rdf-syntax-ns#"
   xmlns:svg="http://www.w3.org/2000/svg"
   xmlns="http://www.w3.org/2000/svg"
   xmlns:sodipodi="http://sodipodi.sourceforge.net/DTD/sodipodi-0.dtd"
   xmlns:inkscape="http://www.inkscape.org/namespaces/inkscape"
   version="1.1"
   id="svg12"
   sodipodi:docname="icon_mouse.svg"
   inkscape:version="0.92.4 (5da689c313, 2019-01-14)">
  <metadata
     id="metadata16">
    <rdf:RDF>
      <cc:Work
         rdf:about="">
        <dc:format>image/svg+xml</dc:format>
        <dc:type
           rdf:resource="http://purl.org/dc/dcmitype/StillImage" />
        <dc:title></dc:title>
      </cc:Work>
    </rdf:RDF>
  </metadata>
  <sodipodi:namedview
     pagecolor="#ffffff"
     bordercolor="#666666"
     borderopacity="1"
     objecttolerance="10"
     gridtolerance="10"
     guidetolerance="10"
     inkscape:pageopacity="0"
     inkscape:pageshadow="2"
     inkscape:window-width="1197"
     inkscape:window-height="730"
     id="namedview14"
     showgrid="false"
     inkscape:zoom="3.337544"
     inkscape:cx="140.51366"
     inkscape:cy="17.709082"
     inkscape:window-x="357"
     inkscape:window-y="243"
     inkscape:window-maximized="0"
     inkscape:current-layer="svg12" />
  <defs
     id="defs2" />
  <g
     id="g10"
     transform="translate(-21.273128,15.580319)">
    <path
       d="M 86.05,21.85 V 12 h -22 v 9.85 H 69 v 3.75 c 0.03333,1.666667 0.583333,3.1 1.65,4.3 1.2,1.366667 2.65,2.033333 4.35,2 1.733333,0.03333 3.2,-0.65 4.4,-2.05 L 79.3,30 C 80.433333,28.766667 81,27.3 81,25.6 v -3.75 h 5.05 M 89.05,11 V 29.85 H 89 c 0,3.866667 -1.366667,7.15 -4.1,9.85 -2.7,2.733333 -5.983333,4.1 -9.85,4.1 H 75 c -3.866667,0 -7.166667,-1.366667 -9.9,-4.1 C 62.4,37 61.05,33.716667 61.05,29.85 V 11.05 C 61.05,10.483333 61.233333,10 61.6,9.6 62,9.2 62.483333,9 63.05,9 h 24 c 0.533333,0 1,0.2 1.4,0.6 0.4,0.4 0.6,0.866667 0.6,1.4 M 72,18.15 c 0,-0.9 0.283333,-1.666667 0.85,-2.3 0.6,-0.633333 1.316667,-0.95 2.15,-0.95 0.833333,0 1.533333,0.316667 2.1,0.95 0.6,0.633333 0.9,1.4 0.9,2.3 v 7.45 c 0,0.9 -0.3,1.666667 -0.9,2.3 -0.566667,0.666667 -1.266667,1 -2.1,1 -0.833333,0 -1.55,-0.333333 -2.15,-1 C 72.283333,27.266667 72,26.5 72,25.6 v -7.45"
       id="path4"
       inkscape:connector-curvature="0"
       style="fill:#000000;stroke:none"
       sodipodi:nodetypes="ccccccccccsccccccssssscssscccscsscscsc" />
  </g>
</svg>
